^C:\USERS\18\DESKTOP\TP2PROGRAMACION3\TP2PROGRAMACION3\VENTANA SFML\CREDITOS.CPP|C:\USERS\18\DESKTOP\TP2PROGRAMACION3\TP2PROGRAMACION3\VENTANA SFML\ENEMY.CPP|C:\USERS\18\DESKTOP\TP2PROGRAMACION3\TP2PROGRAMACION3\VENTANA SFML\GAME.CPP|C:\USERS\18\DESKTOP\TP2PROGRAMACION3\TP2PROGRAMACION3\VENTANA SFML\ITEM.CPP|C:\USERS\18\DESKTOP\TP2PROGRAMACION3\TP2PROGRAMACION3\VENTANA SFML\MENU.CPP|C:\USERS\18\DESKTOP\TP2PROGRAMACION3\TP2PROGRAMACION3\VENTANA SFML\STATEMANAGER.CPP|C:\USERS\18\DESKTOP\TP2PROGRAMACION3\TP2PROGRAMACION3\VENTANA SFML\VENTANASFML.CPP
C:\USERS\18\DESKTOP\TP2PROGRAMACION3\TP2PROGRAMACION3\VENTANA SFML\DEBUG\VC140.PDB
C:\USERS\18\DESKTOP\TP2PROGRAMACION3\TP2PROGRAMACION3\VENTANA SFML\DEBUG\VC140.IDB
C:\USERS\18\DESKTOP\TP2PROGRAMACION3\TP2PROGRAMACION3\VENTANA SFML\DEBUG\CREDITOS.OBJ
C:\USERS\18\DESKTOP\TP2PROGRAMACION3\TP2PROGRAMACION3\VENTANA SFML\DEBUG\ENEMY.OBJ
C:\USERS\18\DESKTOP\TP2PROGRAMACION3\TP2PROGRAMACION3\VENTANA SFML\DEBUG\GAME.OBJ
C:\USERS\18\DESKTOP\TP2PROGRAMACION3\TP2PROGRAMACION3\VENTANA SFML\DEBUG\ITEM.OBJ
C:\USERS\18\DESKTOP\TP2PROGRAMACION3\TP2PROGRAMACION3\VENTANA SFML\DEBUG\MENU.OBJ
C:\USERS\18\DESKTOP\TP2PROGRAMACION3\TP2PROGRAMACION3\VENTANA SFML\DEBUG\STATEMANAGER.OBJ
C:\USERS\18\DESKTOP\TP2PROGRAMACION3\TP2PROGRAMACION3\VENTANA SFML\DEBUG\VENTANASFML.OBJ
^C:\USERS\18\DESKTOP\TP2PROGRAMACION3\TP2PROGRAMACION3\VENTANA SFML\CREDITOS.CPP
C:\USERS\18\DESKTOP\TP2PROGRAMACION3\TP2PROGRAMACION3\VENTANA SFML\DEBUG\VC140.PDB
^C:\USERS\18\DESKTOP\TP2PROGRAMACION3\TP2PROGRAMACION3\VENTANA SFML\ENEMY.CPP
C:\USERS\18\DESKTOP\TP2PROGRAMACION3\TP2PROGRAMACION3\VENTANA SFML\DEBUG\VC140.PDB
^C:\USERS\18\DESKTOP\TP2PROGRAMACION3\TP2PROGRAMACION3\VENTANA SFML\GAME.CPP
C:\USERS\18\DESKTOP\TP2PROGRAMACION3\TP2PROGRAMACION3\VENTANA SFML\DEBUG\VC140.PDB
^C:\USERS\18\DESKTOP\TP2PROGRAMACION3\TP2PROGRAMACION3\VENTANA SFML\ITEM.CPP
C:\USERS\18\DESKTOP\TP2PROGRAMACION3\TP2PROGRAMACION3\VENTANA SFML\DEBUG\VC140.PDB
^C:\USERS\18\DESKTOP\TP2PROGRAMACION3\TP2PROGRAMACION3\VENTANA SFML\MENU.CPP
C:\USERS\18\DESKTOP\TP2PROGRAMACION3\TP2PROGRAMACION3\VENTANA SFML\DEBUG\VC140.PDB
^C:\USERS\18\DESKTOP\TP2PROGRAMACION3\TP2PROGRAMACION3\VENTANA SFML\STATEMANAGER.CPP
C:\USERS\18\DESKTOP\TP2PROGRAMACION3\TP2PROGRAMACION3\VENTANA SFML\DEBUG\VC140.PDB
^C:\USERS\18\DESKTOP\TP2PROGRAMACION3\TP2PROGRAMACION3\VENTANA SFML\VENTANASFML.CPP
C:\USERS\18\DESKTOP\TP2PROGRAMACION3\TP2PROGRAMACION3\VENTANA SFML\DEBUG\VC140.PDB
^C:\USERS\18\DESKTOP\TP2PROGRAMACION3\TP2PROGRAMACION3\VENTANA SFML\GAME.CPP|C:\USERS\18\DESKTOP\TP2PROGRAMACION3\TP2PROGRAMACION3\VENTANA SFML\MENU.CPP
C:\USERS\18\DESKTOP\TP2PROGRAMACION3\TP2PROGRAMACION3\VENTANA SFML\DEBUG\VC140.PDB
C:\USERS\18\DESKTOP\TP2PROGRAMACION3\TP2PROGRAMACION3\VENTANA SFML\DEBUG\VC140.IDB
C:\USERS\18\DESKTOP\TP2PROGRAMACION3\TP2PROGRAMACION3\VENTANA SFML\DEBUG\GAME.OBJ
C:\USERS\18\DESKTOP\TP2PROGRAMACION3\TP2PROGRAMACION3\VENTANA SFML\DEBUG\MENU.OBJ
