^C:\USERS\18\DESKTOP\TP2PROGRAMACION3\TP2PROGRAMACION3\VENTANA SFML\DEBUG\CREDITOS.OBJ|C:\USERS\18\DESKTOP\TP2PROGRAMACION3\TP2PROGRAMACION3\VENTANA SFML\DEBUG\ENEMY.OBJ|C:\USERS\18\DESKTOP\TP2PROGRAMACION3\TP2PROGRAMACION3\VENTANA SFML\DEBUG\GAME.OBJ|C:\USERS\18\DESKTOP\TP2PROGRAMACION3\TP2PROGRAMACION3\VENTANA SFML\DEBUG\ITEM.OBJ|C:\USERS\18\DESKTOP\TP2PROGRAMACION3\TP2PROGRAMACION3\VENTANA SFML\DEBUG\MENU.OBJ|C:\USERS\18\DESKTOP\TP2PROGRAMACION3\TP2PROGRAMACION3\VENTANA SFML\DEBUG\STATEMANAGER.OBJ|C:\USERS\18\DESKTOP\TP2PROGRAMACION3\TP2PROGRAMACION3\VENTANA SFML\DEBUG\VENTANASFML.OBJ
C:\WINDOWS\GLOBALIZATION\SORTING\SORTDEFAULT.NLS
C:\USERS\18\DESKTOP\TP2PROGRAMACION3\TP2PROGRAMACION3\SFML-2.4.2\LIB\SFML-WINDOW-S-D.LIB
C:\USERS\18\DESKTOP\TP2PROGRAMACION3\TP2PROGRAMACION3\SFML-2.4.2\LIB\SFML-GRAPHICS-S-D.LIB
C:\USERS\18\DESKTOP\TP2PROGRAMACION3\TP2PROGRAMACION3\SFML-2.4.2\LIB\SFML-SYSTEM-S-D.LIB
C:\USERS\18\DESKTOP\TP2PROGRAMACION3\TP2PROGRAMACION3\SFML-2.4.2\LIB\SFML-AUDIO-S-D.LIB
C:\USERS\18\DESKTOP\TP2PROGRAMACION3\TP2PROGRAMACION3\SFML-2.4.2\LIB\SFML-NETWORK-S-D.LIB
C:\PROGRAM FILES (X86)\WINDOWS KITS\8.1\LIB\WINV6.3\UM\X86\OPENGL32.LIB
C:\PROGRAM FILES (X86)\WINDOWS KITS\8.1\LIB\WINV6.3\UM\X86\WINMM.LIB
C:\USERS\18\DESKTOP\TP2PROGRAMACION3\TP2PROGRAMACION3\SFML-2.4.2\LIB\OPENAL32.LIB
C:\USERS\18\DESKTOP\TP2PROGRAMACION3\TP2PROGRAMACION3\SFML-2.4.2\LIB\FLAC.LIB
C:\USERS\18\DESKTOP\TP2PROGRAMACION3\TP2PROGRAMACION3\SFML-2.4.2\LIB\VORBISENC.LIB
C:\USERS\18\DESKTOP\TP2PROGRAMACION3\TP2PROGRAMACION3\SFML-2.4.2\LIB\VORBISFILE.LIB
C:\USERS\18\DESKTOP\TP2PROGRAMACION3\TP2PROGRAMACION3\SFML-2.4.2\LIB\VORBIS.LIB
C:\USERS\18\DESKTOP\TP2PROGRAMACION3\TP2PROGRAMACION3\SFML-2.4.2\LIB\OGG.LIB
C:\USERS\18\DESKTOP\TP2PROGRAMACION3\TP2PROGRAMACION3\SFML-2.4.2\LIB\FREETYPE.LIB
C:\USERS\18\DESKTOP\TP2PROGRAMACION3\TP2PROGRAMACION3\SFML-2.4.2\LIB\JPEG.LIB
C:\PROGRAM FILES (X86)\WINDOWS KITS\8.1\LIB\WINV6.3\UM\X86\GDI32.LIB
C:\PROGRAM FILES (X86)\WINDOWS KITS\8.1\LIB\WINV6.3\UM\X86\WS2_32.LIB
C:\PROGRAM FILES (X86)\WINDOWS KITS\8.1\LIB\WINV6.3\UM\X86\KERNEL32.LIB
C:\PROGRAM FILES (X86)\WINDOWS KITS\8.1\LIB\WINV6.3\UM\X86\USER32.LIB
C:\PROGRAM FILES (X86)\WINDOWS KITS\8.1\LIB\WINV6.3\UM\X86\WINSPOOL.LIB
C:\PROGRAM FILES (X86)\WINDOWS KITS\8.1\LIB\WINV6.3\UM\X86\COMDLG32.LIB
C:\PROGRAM FILES (X86)\WINDOWS KITS\8.1\LIB\WINV6.3\UM\X86\ADVAPI32.LIB
C:\PROGRAM FILES (X86)\WINDOWS KITS\8.1\LIB\WINV6.3\UM\X86\SHELL32.LIB
C:\PROGRAM FILES (X86)\WINDOWS KITS\8.1\LIB\WINV6.3\UM\X86\OLE32.LIB
C:\PROGRAM FILES (X86)\WINDOWS KITS\8.1\LIB\WINV6.3\UM\X86\OLEAUT32.LIB
C:\PROGRAM FILES (X86)\WINDOWS KITS\8.1\LIB\WINV6.3\UM\X86\UUID.LIB
C:\PROGRAM FILES (X86)\WINDOWS KITS\8.1\LIB\WINV6.3\UM\X86\ODBC32.LIB
C:\PROGRAM FILES (X86)\WINDOWS KITS\8.1\LIB\WINV6.3\UM\X86\ODBCCP32.LIB
C:\USERS\18\DESKTOP\TP2PROGRAMACION3\TP2PROGRAMACION3\VENTANA SFML\DEBUG\CREDITOS.OBJ
C:\USERS\18\DESKTOP\TP2PROGRAMACION3\TP2PROGRAMACION3\VENTANA SFML\DEBUG\ENEMY.OBJ
C:\USERS\18\DESKTOP\TP2PROGRAMACION3\TP2PROGRAMACION3\VENTANA SFML\DEBUG\GAME.OBJ
C:\USERS\18\DESKTOP\TP2PROGRAMACION3\TP2PROGRAMACION3\VENTANA SFML\DEBUG\ITEM.OBJ
C:\USERS\18\DESKTOP\TP2PROGRAMACION3\TP2PROGRAMACION3\VENTANA SFML\DEBUG\MENU.OBJ
C:\USERS\18\DESKTOP\TP2PROGRAMACION3\TP2PROGRAMACION3\VENTANA SFML\DEBUG\STATEMANAGER.OBJ
C:\USERS\18\DESKTOP\TP2PROGRAMACION3\TP2PROGRAMACION3\VENTANA SFML\DEBUG\VENTANASFML.OBJ
C:\WINDOWS\SYSTEM32\TZRES.DLL
C:\PROGRAM FILES (X86)\MICROSOFT VISUAL STUDIO 14.0\VC\LIB\MSVCPRTD.LIB
C:\PROGRAM FILES (X86)\MICROSOFT VISUAL STUDIO 14.0\VC\LIB\MSVCRTD.LIB
C:\PROGRAM FILES (X86)\MICROSOFT VISUAL STUDIO 14.0\VC\LIB\OLDNAMES.LIB
C:\PROGRAM FILES (X86)\MICROSOFT VISUAL STUDIO 14.0\VC\LIB\VCRUNTIMED.LIB
C:\PROGRAM FILES (X86)\WINDOWS KITS\10\LIB\10.0.10240.0\UCRT\X86\UCRTD.LIB
